[Info  - 07:45:36.546] Starting TS Server 
[Info  - 07:45:36.546] Using tsserver from: /usr/share/code/resources/app/extensions/node_modules/typescript/lib
[Info  - 07:45:36.547] <syntax> Forking...
[Info  - 07:45:36.553] <syntax> Starting...
[Info  - 07:45:36.554] <semantic> Forking...
[Info  - 07:45:36.561] <semantic> Starting...
